4140407.0000	-5.5773	76.4549
2857787.0000	-2.6954	103.0074
2484316.0000	5.2628	141.7823
2607350.0000	12.5686	219.1708
2872025.0000	16.5883	246.1384
3209086.0000	21.7399	269.7347
2716888.0000	25.4534	302.6774
2735412.0000	24.7766	266.7970
2622377.0000	18.4539	177.0444
3034338.0000	13.2331	147.0188
3483000.0000	5.2749	85.3861
3675402.0000	-5.0957	62.5087
