16.6688287756376	-4.646505376	73.49865591	7.18212611576232	2.59078925501866	
14.3770202372968	-2.520238095	103.889881	7.18212611576232	2.59078925501866	
16.2159190699167	3.823924731	143.3400538	7.18212611576232	2.59078925501866	
17.9792929082151	9.950833333	183.0888889	7.18212611576232	2.59078925501866	
21.2186663658712	15.31034946	248.9946237	7.18212611576232	2.59078925501866	
22.6554111600698	21.10916667	262.2291667	7.18212611576232	2.59078925501866	
24.6144709986988	24.13481183	257.3655914	7.18212611576232	2.59078925501866	
23.482588054111	21.77365591	215.0591398	7.18212611576232	2.59078925501866	
21.2180776790406	18.13388889	174.6930556	7.18212611576232	2.59078925501866	
18.6846474375867	10.98077957	122.5497312	7.18212611576232	2.59078925501866	
15.5789783401607	4.731666667	75.77638889	7.18212611576232	2.59078925501866	
16.1815369380462	-3.686155914	62.66666667	7.18212611576232	2.59078925501866	
17.4409659755514	-4.646505376	73.49865591	11.8816371694921	2.25515750784737	
15.4762173785695	-2.520238095	103.889881	11.8816371694921	2.25515750784737	
18.2587271781293	3.823924731	143.3400538	11.8816371694921	2.25515750784737	
20.2959646922406	9.950833333	183.0888889	11.8816371694921	2.25515750784737	
23.8153100718578	15.31034946	248.9946237	11.8816371694921	2.25515750784737	
25.3231950648962	21.10916667	262.2291667	11.8816371694921	2.25515750784737	
27.4589984820524	24.13481183	257.3655914	11.8816371694921	2.25515750784737	
26.2445502038195	21.77365591	215.0591398	11.8816371694921	2.25515750784737	
23.7809987336735	18.13388889	174.6930556	11.8816371694921	2.25515750784737	
21.0893958400264	10.98077957	122.5497312	11.8816371694921	2.25515750784737	
17.5562979159886	4.731666667	75.77638889	11.8816371694921	2.25515750784737	
17.1447174127297	-3.686155914	62.66666667	11.8816371694921	2.25515750784737	
17.1939237650095	-4.646505376	73.49865591	11.3262210532837	3.02701710533972	
15.1454586587827	-2.520238095	103.889881	11.3262210532837	3.02701710533972	
17.5327288501217	3.823924731	143.3400538	11.3262210532837	3.02701710533972	
19.1836820112428	9.950833333	183.0888889	11.3262210532837	3.02701710533972	
22.2515594411501	15.31034946	248.9946237	11.3262210532837	3.02701710533972	
23.4790115407675	21.10916667	262.2291667	11.3262210532837	3.02701710533972	
25.365578307346	24.13481183	257.3655914	11.3262210532837	3.02701710533972	
24.3276648433848	21.77365591	215.0591398	11.3262210532837	3.02701710533972	
22.1609934476403	18.13388889	174.6930556	11.3262210532837	3.02701710533972	
19.9226411815025	10.98077957	122.5497312	11.3262210532837	3.02701710533972	
16.867449340703	4.731666667	75.77638889	11.3262210532837	3.02701710533972	
16.8556523643549	-3.686155914	62.66666667	11.3262210532837	3.02701710533972	
16.8389858842315	-4.646505376	73.49865591	9.32657632312737	3.48559188457827	
14.6530086535649	-2.520238095	103.889881	9.32657632312737	3.48559188457827	
16.6186867435937	3.823924731	143.3400538	9.32657632312737	3.48559188457827	
18.0985950255955	9.950833333	183.0888889	9.32657632312737	3.48559188457827	
20.9748145376438	15.31034946	248.9946237	9.32657632312737	3.48559188457827	
22.1215063371551	21.10916667	262.2291667	9.32657632312737	3.48559188457827	
23.8936481275569	24.13481183	257.3655914	9.32657632312737	3.48559188457827	
22.9207724472633	21.77365591	215.0591398	9.32657632312737	3.48559188457827	
20.8860829093329	18.13388889	174.6930556	9.32657632312737	3.48559188457827	
18.7940989748253	10.98077957	122.5497312	9.32657632312737	3.48559188457827	
15.9853147104863	4.731666667	75.77638889	9.32657632312737	3.48559188457827	
16.419481807163	-3.686155914	62.66666667	9.32657632312737	3.48559188457827	
17.246341770997	-4.646505376	73.49865591	11.9109093522777	3.40216696800975	
15.2124538620626	-2.520238095	103.889881	11.9109093522777	3.40216696800975	
17.5834185316077	3.823924731	143.3400538	11.9109093522777	3.40216696800975	
19.1172404378442	9.950833333	183.0888889	11.9109093522777	3.40216696800975	
22.0477582574123	15.31034946	248.9946237	11.9109093522777	3.40216696800975	
23.1730334758513	21.10916667	262.2291667	11.9109093522777	3.40216696800975	
24.9876774527813	24.13481183	257.3655914	11.9109093522777	3.40216696800975	
24.0077962202209	21.77365591	215.0591398	11.9109093522777	3.40216696800975	
21.9287077367852	18.13388889	174.6930556	11.9109093522777	3.40216696800975	
19.8486041919803	10.98077957	122.5497312	11.9109093522777	3.40216696800975	
16.9221386621961	4.731666667	75.77638889	11.9109093522777	3.40216696800975	
16.9218916859246	-3.686155914	62.66666667	11.9109093522777	3.40216696800975	
16.6647279175435	-4.646505376	73.49865591	7.54319914068095	2.98401159735707	
14.3795141648067	-2.520238095	103.889881	7.54319914068095	2.98401159735707	
16.1636807694569	3.823924731	143.3400538	7.54319914068095	2.98401159735707	
17.7689743272266	9.950833333	183.0888889	7.54319914068095	2.98401159735707	
20.8143483673812	15.31034946	248.9946237	7.54319914068095	2.98401159735707	
22.113464220022	21.10916667	262.2291667	7.54319914068095	2.98401159735707	
23.9689392748246	24.13481183	257.3655914	7.54319914068095	2.98401159735707	
22.9174618314876	21.77365591	215.0591398	7.54319914068095	2.98401159735707	
20.7782330949232	18.13388889	174.6930556	7.54319914068095	2.98401159735707	
18.4599142445108	10.98077957	122.5497312	7.54319914068095	2.98401159735707	
15.5357190126294	4.731666667	75.77638889	7.54319914068095	2.98401159735707	
16.1844603541097	-3.686155914	62.66666667	7.54319914068095	2.98401159735707	
16.6534214961783	-4.646505376	73.49865591	8.09163585035441	3.9216529948016	
14.3746670126963	-2.520238095	103.889881	8.09163585035441	3.9216529948016	
16.0598705225643	3.823924731	143.3400538	8.09163585035441	3.9216529948016	
17.4128575082427	9.950833333	183.0888889	8.09163585035441	3.9216529948016	
20.1515823118694	15.31034946	248.9946237	8.09163585035441	3.9216529948016	
21.2348044408108	21.10916667	262.2291667	8.09163585035441	3.9216529948016	
22.9263200000699	24.13481183	257.3655914	8.09163585035441	3.9216529948016	
22.0014596001644	21.77365591	215.0591398	8.09163585035441	3.9216529948016	
20.0603577066805	18.13388889	174.6930556	8.09163585035441	3.9216529948016	
18.0801783974996	10.98077957	122.5497312	8.09163585035441	3.9216529948016	
15.4466919254692	4.731666667	75.77638889	8.09163585035441	3.9216529948016	
16.1824653436842	-3.686155914	62.66666667	8.09163585035441	3.9216529948016	
16.9620252043085	-4.646505376	73.49865591	10.2374045878649	3.55317859464946	
14.8291001929747	-2.520238095	103.889881	10.2374045878649	3.55317859464946	
16.9221055842836	3.823924731	143.3400538	10.2374045878649	3.55317859464946	
18.3965829519963	9.950833333	183.0888889	10.2374045878649	3.55317859464946	
21.2608211420779	15.31034946	248.9946237	10.2374045878649	3.55317859464946	
22.3795428367079	21.10916667	262.2291667	10.2374045878649	3.55317859464946	
24.1496341287003	24.13481183	257.3655914	10.2374045878649	3.55317859464946	
23.1867731934335	21.77365591	215.0591398	10.2374045878649	3.55317859464946	
21.1568344226649	18.13388889	174.6930556	10.2374045878649	3.55317859464946	
19.1015255824885	10.98077957	122.5497312	10.2374045878649	3.55317859464946	
16.2811340607045	4.731666667	75.77638889	10.2374045878649	3.55317859464946	
16.57526289925	-3.686155914	62.66666667	10.2374045878649	3.55317859464946	
16.5368687710106	-4.646505376	73.49865591	6.90569903988081	3.79047197874946	
14.1799816061252	-2.520238095	103.889881	6.90569903988081	3.79047197874946	
15.6829992056445	3.823924731	143.3400538	6.90569903988081	3.79047197874946	
17.0397094932162	9.950833333	183.0888889	6.90569903988081	3.79047197874946	
19.8004680076569	15.31034946	248.9946237	6.90569903988081	3.79047197874946	
20.9246848906644	21.10916667	262.2291667	6.90569903988081	3.79047197874946	
22.6227252532257	24.13481183	257.3655914	6.90569903988081	3.79047197874946	
21.6820110747099	21.77365591	215.0591398	6.90569903988081	3.79047197874946	
19.7301102045437	18.13388889	174.6930556	6.90569903988081	3.79047197874946	
17.6953253781104	10.98077957	122.5497312	6.90569903988081	3.79047197874946	
15.0788907091237	4.731666667	75.77638889	6.90569903988081	3.79047197874946	
16.021909780104	-3.686155914	62.66666667	6.90569903988081	3.79047197874946	
16.8062203001999	-4.646505376	73.49865591	8.7846132450675	3.07671030514563	
14.60131820291	-2.520238095	103.889881	8.7846132450675	3.07671030514563	
16.5750671515445	3.823924731	143.3400538	8.7846132450675	3.07671030514563	
18.1724740157071	9.950833333	183.0888889	8.7846132450675	3.07671030514563	
21.1921268969037	15.31034946	248.9946237	8.7846132450675	3.07671030514563	
22.4455404144281	21.10916667	262.2291667	8.7846132450675	3.07671030514563	
24.293037730372	24.13481183	257.3655914	8.7846132450675	3.07671030514563	
23.2594682329761	21.77365591	215.0591398	8.7846132450675	3.07671030514563	
21.1330455312559	18.13388889	174.6930556	8.7846132450675	3.07671030514563	
18.8759650717995	10.98077957	122.5497312	8.7846132450675	3.07671030514563	
15.9372190537223	4.731666667	75.77638889	8.7846132450675	3.07671030514563	
16.3723890510241	-3.686155914	62.66666667	8.7846132450675	3.07671030514563	
17.1389289123467	-4.646505376	73.49865591	11.6033818610323	3.97083705182498	
15.0690284560328	-2.520238095	103.889881	11.6033818610323	3.97083705182498	
17.2804790185406	3.823924731	143.3400538	11.6033818610323	3.97083705182498	
18.6699739608404	9.950833333	183.0888889	11.6033818610323	3.97083705182498	
21.4315676007178	15.31034946	248.9946237	11.6033818610323	3.97083705182498	
22.4538204696438	21.10916667	262.2291667	11.6033818610323	3.97083705182498	
24.174749231014	24.13481183	257.3655914	11.6033818610323	3.97083705182498	
23.2604386189181	21.77365591	215.0591398	11.6033818610323	3.97083705182498	
21.2927617624988	18.13388889	174.6930556	11.6033818610323	3.97083705182498	
19.379935878369	10.98077957	122.5497312	11.6033818610323	3.97083705182498	
16.6339402210398	4.731666667	75.77638889	11.6033818610323	3.97083705182498	
16.7955504005614	-3.686155914	62.66666667	11.6033818610323	3.97083705182498	
16.8751732516029	-4.646505376	73.49865591	9.43745989049474	3.26159113054164	
14.7044470114822	-2.520238095	103.889881	9.43745989049474	3.26159113054164	
16.7382622510534	3.823924731	143.3400538	9.43745989049474	3.26159113054164	
18.285439382295	9.950833333	183.0888889	9.43745989049474	3.26159113054164	
21.2399936046601	15.31034946	248.9946237	9.43745989049474	3.26159113054164	
22.43572860359	21.10916667	262.2291667	9.43745989049474	3.26159113054164	
24.2510299394465	24.13481183	257.3655914	9.43745989049474	3.26159113054164	
23.2474235132916	21.77365591	215.0591398	9.43745989049474	3.26159113054164	
21.1612808616175	18.13388889	174.6930556	9.43745989049474	3.26159113054164	
18.9901920077772	10.98077957	122.5497312	9.43745989049474	3.26159113054164	
16.0986381746442	4.731666667	75.77638889	9.43745989049474	3.26159113054164	
16.4630749083028	-3.686155914	62.66666667	9.43745989049474	3.26159113054164	
16.9898248138544	-4.646505376	73.49865591	9.92249726857369	2.87995344637893	
14.8666145723067	-2.520238095	103.889881	9.92249726857369	2.87995344637893	
17.0831484508144	3.823924731	143.3400538	9.92249726857369	2.87995344637893	
18.7730665455659	9.950833333	183.0888889	9.92249726857369	2.87995344637893	
21.8920890847512	15.31034946	248.9946237	9.92249726857369	2.87995344637893	
23.1848002544063	21.10916667	262.2291667	9.92249726857369	2.87995344637893	
25.0920354075556	24.13481183	257.3655914	9.92249726857369	2.87995344637893	
24.0254689988755	21.77365591	215.0591398	9.92249726857369	2.87995344637893	
21.8304001916565	18.13388889	174.6930556	9.92249726857369	2.87995344637893	
19.5004101834137	10.98077957	122.5497312	9.92249726857369	2.87995344637893	
16.4278922417755	4.731666667	75.77638889	9.92249726857369	2.87995344637893	
16.6028028916585	-3.686155914	62.66666667	9.92249726857369	2.87995344637893	
17.1319585184249	-4.646505376	73.49865591	10.3086271065536	2.38838316559171	
15.0637594902069	-2.520238095	103.889881	10.3086271065536	2.38838316559171	
17.5303853856983	3.823924731	143.3400538	10.3086271065536	2.38838316559171	
19.4647572332846	9.950833333	183.0888889	10.3086271065536	2.38838316559171	
22.868543803923	15.31034946	248.9946237	10.3086271065536	2.38838316559171	
24.3387382363918	21.10916667	262.2291667	10.3086271065536	2.38838316559171	
26.403030300096	24.13481183	257.3655914	10.3086271065536	2.38838316559171	
25.224963886679	21.77365591	215.0591398	10.3086271065536	2.38838316559171	
22.8427465121974	18.13388889	174.6930556	10.3086271065536	2.38838316559171	
20.2261393322087	10.98077957	122.5497312	10.3086271065536	2.38838316559171	
16.8520321167739	4.731666667	75.77638889	10.3086271065536	2.38838316559171	
16.77199932477	-3.686155914	62.66666667	10.3086271065536	2.38838316559171	
17.3311060931174	-4.646505376	73.49865591	11.0590558616631	2.09777922895737	
15.3344272374591	-2.520238095	103.889881	11.0590558616631	2.09777922895737	
18.0785069037355	3.823924731	143.3400538	11.0590558616631	2.09777922895737	
20.217803637914	9.950833333	183.0888889	11.0590558616631	2.09777922895737	
23.8583654420152	15.31034946	248.9946237	11.0590558616631	2.09777922895737	
25.4649937375617	21.10916667	262.2291667	11.0590558616631	2.09777922895737	
27.6623617312617	24.13481183	257.3655914	11.0590558616631	2.09777922895737	
26.3944745939159	21.77365591	215.0591398	11.0590558616631	2.09777922895737	
23.8549390236538	18.13388889	174.6930556	11.0590558616631	2.09777922895737	
21.0133940626099	10.98077957	122.5497312	11.0590558616631	2.09777922895737	
17.3762035798052	4.731666667	75.77638889	11.0590558616631	2.09777922895737	
17.010283362164	-3.686155914	62.66666667	11.0590558616631	2.09777922895737	
16.587609504593	-4.646505376	73.49865591	6.43237802345927	2.6126112894776	
14.2392562048408	-2.520238095	103.889881	6.43237802345927	2.6126112894776	
15.928764501519	3.823924731	143.3400538	6.43237802345927	2.6126112894776	
17.6610425937038	9.950833333	183.0888889	6.43237802345927	2.6126112894776	
20.8789516944118	15.31034946	248.9946237	6.43237802345927	2.6126112894776	
22.3195634391384	21.10916667	262.2291667	6.43237802345927	2.6126112894776	
24.263423748361	24.13481183	257.3655914	6.43237802345927	2.6126112894776	
23.1353058551013	21.77365591	215.0591398	6.43237802345927	2.6126112894776	
20.8870145478042	18.13388889	174.6930556	6.43237802345927	2.6126112894776	
18.3548196456372	10.98077957	122.5497312	6.43237802345927	2.6126112894776	
15.3002793760645	4.731666667	75.77638889	6.43237802345927	2.6126112894776	
16.069985715468	-3.686155914	62.66666667	6.43237802345927	2.6126112894776	
16.7192232807001	-4.646505376	73.49865591	7.89017150086351	2.84976508303856	
14.4643143123299	-2.520238095	103.889881	7.89017150086351	2.84976508303856	
16.3480352702172	3.823924731	143.3400538	7.89017150086351	2.84976508303856	
18.0130734279697	9.950833333	183.0888889	7.89017150086351	2.84976508303856	
21.123913385478	15.31034946	248.9946237	7.89017150086351	2.84976508303856	
22.4583737438359	21.10916667	262.2291667	7.89017150086351	2.84976508303856	
24.3510644041628	24.13481183	257.3655914	7.89017150086351	2.84976508303856	
23.2754064351048	21.77365591	215.0591398	7.89017150086351	2.84976508303856	
21.0924353243619	18.13388889	174.6930556	7.89017150086351	2.84976508303856	
18.7147051636608	10.98077957	122.5497312	7.89017150086351	2.84976508303856	
15.712626099066	4.731666667	75.77638889	7.89017150086351	2.84976508303856	
16.2547976986705	-3.686155914	62.66666667	7.89017150086351	2.84976508303856	
16.6875336940999	-4.646505376	73.49865591	6.97635398080883	2.29862812470334	
14.3988063245282	-2.520238095	103.889881	6.97635398080883	2.29862812470334	
16.3136211855244	3.823924731	143.3400538	6.97635398080883	2.29862812470334	
18.2320644685196	9.950833333	183.0888889	6.97635398080883	2.29862812470334	
21.6599264471558	15.31034946	248.9946237	6.97635398080883	2.29862812470334	
23.2273190811986	21.10916667	262.2291667	6.97635398080883	2.29862812470334	
25.2876739664456	24.13481183	257.3655914	6.97635398080883	2.29862812470334	
24.0784773047162	21.77365591	215.0591398	6.97635398080883	2.29862812470334	
21.6918089173112	18.13388889	174.6930556	6.97635398080883	2.29862812470334	
18.9530454152088	10.98077957	122.5497312	6.97635398080883	2.29862812470334	
15.6667239551671	4.731666667	75.77638889	6.97635398080883	2.29862812470334	
16.1987820146856	-3.686155914	62.66666667	6.97635398080883	2.29862812470334	
17.2692281950764	-4.646505376	73.49865591	10.7847992602425	2.14492969666608	
15.2513055338461	-2.520238095	103.889881	10.7847992602425	2.14492969666608	
17.9224045256796	3.823924731	143.3400538	10.7847992602425	2.14492969666608	
20.0227775142107	9.950833333	183.0888889	10.7847992602425	2.14492969666608	
23.6188440935417	15.31034946	248.9946237	10.7847992602425	2.14492969666608	
25.2031763289857	21.10916667	262.2291667	10.7847992602425	2.14492969666608	
27.3747839291861	24.13481183	257.3655914	10.7847992602425	2.14492969666608	
26.1229112739191	21.77365591	215.0591398	10.7847992602425	2.14492969666608	
23.6134587624957	18.13388889	174.6930556	10.7847992602425	2.14492969666608	
20.8101652692171	10.98077957	122.5497312	10.7847992602425	2.14492969666608	
17.2260305548501	4.731666667	75.77638889	10.7847992602425	2.14492969666608	
16.9359906650992	-3.686155914	62.66666667	10.7847992602425	2.14492969666608	
17.1293893946758	-4.646505376	73.49865591	10.6209072461321	2.68002984275421	
15.0598265032971	-2.520238095	103.889881	10.6209072461321	2.68002984275421	
17.4553379229079	3.823924731	143.3400538	10.6209072461321	2.68002984275421	
19.2415628222804	9.950833333	183.0888889	10.6209072461321	2.68002984275421	
22.4699582378475	15.31034946	248.9946237	10.6209072461321	2.68002984275421	
23.8181425977606	21.10916667	262.2291667	10.6209072461321	2.68002984275421	
25.7885380709867	24.13481183	257.3655914	10.6209072461321	2.68002984275421	
24.6824374793216	21.77365591	215.0591398	10.6209072461321	2.68002984275421	
22.413537308426	18.13388889	174.6930556	10.6209072461321	2.68002984275421	
19.9887141286043	10.98077957	122.5497312	10.6209072461321	2.68002984275421	
16.7858558319301	4.731666667	75.77638889	10.6209072461321	2.68002984275421	
16.7730953322141	-3.686155914	62.66666667	10.6209072461321	2.68002984275421	
16.8683148522867	-4.646505376	73.49865591	9.76361370908096	3.86661027202693	
14.6972009394801	-2.520238095	103.889881	9.76361370908096	3.86661027202693	
16.6583337599731	3.823924731	143.3400538	9.76361370908096	3.86661027202693	
18.0504453302091	9.950833333	183.0888889	9.76361370908096	3.86661027202693	
20.8203742073107	15.31034946	248.9946237	9.76361370908096	3.86661027202693	
21.8876262057028	21.10916667	262.2291667	9.76361370908096	3.86661027202693	
23.6040546247421	24.13481183	257.3655914	9.76361370908096	3.86661027202693	
22.6762306875618	21.77365591	215.0591398	9.76361370908096	3.86661027202693	
20.7094114066272	18.13388889	174.6930556	9.76361370908096	3.86661027202693	
18.7402323628423	10.98077957	122.5497312	9.76361370908096	3.86661027202693	
16.0280845820186	4.731666667	75.77638889	9.76361370908096	3.86661027202693	
16.4602655163148	-3.686155914	62.66666667	9.76361370908096	3.86661027202693	
16.5630202020259	-4.646505376	73.49865591	6.04385559615369	2.50596768742738	
14.1909399991205	-2.520238095	103.889881	6.04385559615369	2.50596768742738	
15.8415486441394	3.823924731	143.3400538	6.04385559615369	2.50596768742738	
17.6150178462162	9.950833333	183.0888889	6.04385559615369	2.50596768742738	
20.891475339062	15.31034946	248.9946237	6.04385559615369	2.50596768742738	
22.3808220356151	21.10916667	262.2291667	6.04385559615369	2.50596768742738	
24.3546243688987	24.13481183	257.3655914	6.04385559615369	2.50596768742738	
23.2002748960554	21.77365591	215.0591398	6.04385559615369	2.50596768742738	
20.914964777682	18.13388889	174.6930556	6.04385559615369	2.50596768742738	
18.3094081996505	10.98077957	122.5497312	6.04385559615369	2.50596768742738	
15.2131004355098	4.731666667	75.77638889	6.04385559615369	2.50596768742738	
16.0319149882616	-3.686155914	62.66666667	6.04385559615369	2.50596768742738	
16.8265670973476	-4.646505376	73.49865591	9.12920442444272	3.3294325343178	
14.633751246384	-2.520238095	103.889881	9.12920442444272	3.3294325343178	
16.6019948425376	3.823924731	143.3400538	9.12920442444272	3.3294325343178	
18.1234815245764	9.950833333	183.0888889	9.12920442444272	3.3294325343178	
21.050310365007	15.31034946	248.9946237	9.12920442444272	3.3294325343178	
22.2347220212075	21.10916667	262.2291667	9.12920442444272	3.3294325343178	
24.0334297441908	24.13481183	257.3655914	9.12920442444272	3.3294325343178	
23.0391250316434	21.77365591	215.0591398	9.12920442444272	3.3294325343178	
20.9720871261007	18.13388889	174.6930556	9.12920442444272	3.3294325343178	
18.821767344296	10.98077957	122.5497312	9.12920442444272	3.3294325343178	
15.9670777185441	4.731666667	75.77638889	9.12920442444272	3.3294325343178	
16.4018569423081	-3.686155914	62.66666667	9.12920442444272	3.3294325343178	
16.7993504036195	-4.646505376	73.49865591	8.48382319076608	2.79670577704286	
14.5876589320762	-2.520238095	103.889881	8.48382319076608	2.79670577704286	
16.5913874834112	3.823924731	143.3400538	8.48382319076608	2.79670577704286	
18.290833276186	9.950833333	183.0888889	8.48382319076608	2.79670577704286	
21.4343614512129	15.31034946	248.9946237	8.48382319076608	2.79670577704286	
22.776549779207	21.10916667	262.2291667	8.48382319076608	2.79670577704286	
24.689902882646	24.13481183	257.3655914	8.48382319076608	2.79670577704286	
23.6047897998455	21.77365591	215.0591398	8.48382319076608	2.79670577704286	
21.3986024655808	18.13388889	174.6930556	8.48382319076608	2.79670577704286	
19.0030286739424	10.98077957	122.5497312	8.48382319076608	2.79670577704286	
15.9482451100737	4.731666667	75.77638889	8.48382319076608	2.79670577704286	
16.3590292015968	-3.686155914	62.66666667	8.48382319076608	2.79670577704286	
16.5319145968353	-4.646505376	73.49865591	5.58820868983244	2.42495928166124	
14.1291024022662	-2.520238095	103.889881	5.58820868983244	2.42495928166124	
15.7181432931326	3.823924731	143.3400538	5.58820868983244	2.42495928166124	
17.5198437940413	9.950833333	183.0888889	5.58820868983244	2.42495928166124	
20.8423510915269	15.31034946	248.9946237	5.58820868983244	2.42495928166124	
22.3739539450169	21.10916667	262.2291667	5.58820868983244	2.42495928166124	
24.3706250151656	24.13481183	257.3655914	5.58820868983244	2.42495928166124	
23.1945591487085	21.77365591	215.0591398	5.58820868983244	2.42495928166124	
20.8805225458352	18.13388889	174.6930556	5.58820868983244	2.42495928166124	
18.2126904114112	10.98077957	122.5497312	5.58820868983244	2.42495928166124	
15.0911929121191	4.731666667	75.77638889	5.58820868983244	2.42495928166124	
15.9840854625613	-3.686155914	62.66666667	5.58820868983244	2.42495928166124	
16.6250449316982	-4.646505376	73.49865591	7.65884360030293	3.61671586370406	
14.3254173141135	-2.520238095	103.889881	7.65884360030293	3.61671586370406	
15.989544462416	3.823924731	143.3400538	7.65884360030293	3.61671586370406	
17.4046797324821	9.950833333	183.0888889	7.65884360030293	3.61671586370406	
20.2227696285934	15.31034946	248.9946237	7.65884360030293	3.61671586370406	
21.3682499147549	21.10916667	262.2291667	7.65884360030293	3.61671586370406	
23.1008586820463	24.13481183	257.3655914	7.65884360030293	3.61671586370406	
22.1415447421786	21.77365591	215.0591398	7.65884360030293	3.61671586370406	
20.1500533394412	18.13388889	174.6930556	7.65884360030293	3.61671586370406	
18.074749942243	10.98077957	122.5497312	7.65884360030293	3.61671586370406	
15.3751025019983	4.731666667	75.77638889	7.65884360030293	3.61671586370406	
16.140788705727	-3.686155914	62.66666667	7.65884360030293	3.61671586370406	
16.6869393803706	-4.646505376	73.49865591	6.60325435739942	2.06382843013853	
14.388060531383	-2.520238095	103.889881	6.60325435739942	2.06382843013853	
16.3439696840798	3.823924731	143.3400538	6.60325435739942	2.06382843013853	
18.4130256081238	9.950833333	183.0888889	6.60325435739942	2.06382843013853	
22.0286630306038	15.31034946	248.9946237	6.60325435739942	2.06382843013853	
23.7308565935309	21.10916667	262.2291667	6.60325435739942	2.06382843013853	
25.8912628420991	24.13481183	257.3655914	6.60325435739942	2.06382843013853	
24.6037790302049	21.77365591	215.0591398	6.60325435739942	2.06382843013853	
22.0959346843218	18.13388889	174.6930556	6.60325435739942	2.06382843013853	
19.1471597299984	10.98077957	122.5497312	6.60325435739942	2.06382843013853	
15.6889490654987	4.731666667	75.77638889	6.60325435739942	2.06382843013853	
16.1896775211659	-3.686155914	62.66666667	6.60325435739942	2.06382843013853	
16.4781763528714	-4.646505376	73.49865591	5.80827864320949	3.18627870247389	
14.0587509034656	-2.520238095	103.889881	5.80827864320949	3.18627870247389	
15.4737346985069	3.823924731	143.3400538	5.80827864320949	3.18627870247389	
16.9638207173705	9.950833333	183.0888889	5.80827864320949	3.18627870247389	
19.9068793717332	15.31034946	248.9946237	5.80827864320949	3.18627870247389	
21.1782708758563	21.10916667	262.2291667	5.80827864320949	3.18627870247389	
22.9702681635374	24.13481183	257.3655914	5.80827864320949	3.18627870247389	
21.9491632991917	21.77365591	215.0591398	5.80827864320949	3.18627870247389	
19.8816162394835	18.13388889	174.6930556	5.80827864320949	3.18627870247389	
17.6236824764524	10.98077957	122.5497312	5.80827864320949	3.18627870247389	
14.8680226111739	4.731666667	75.77638889	5.80827864320949	3.18627870247389	
15.9270031090631	-3.686155914	62.66666667	5.80827864320949	3.18627870247389	
16.7377075497673	-4.646505376	73.49865591	8.6906554993894	3.72358507942408	
14.5036727997761	-2.520238095	103.889881	8.6906554993894	3.72358507942408	
16.3207638585714	3.823924731	143.3400538	8.6906554993894	3.72358507942408	
17.729421063012	9.950833333	183.0888889	8.6906554993894	3.72358507942408	
20.5272996005937	15.31034946	248.9946237	8.6906554993894	3.72358507942408	
21.6364392595013	21.10916667	262.2291667	8.6906554993894	3.72358507942408	
23.3629188881933	24.13481183	257.3655914	8.6906554993894	3.72358507942408	
22.417772622067	21.77365591	215.0591398	8.6906554993894	3.72358507942408	
20.4362303548672	18.13388889	174.6930556	8.6906554993894	3.72358507942408	
18.4095951592812	10.98077957	122.5497312	8.6906554993894	3.72358507942408	
15.6983655421934	4.731666667	75.77638889	8.6906554993894	3.72358507942408	
16.2914203874379	-3.686155914	62.66666667	8.6906554993894	3.72358507942408	
16.439927517608	-4.646505376	73.49865591	5.46948905807299	3.35331463669427	
13.9895288053638	-2.520238095	103.889881	5.46948905807299	3.35331463669427	
15.3052190261697	3.823924731	143.3400538	5.46948905807299	3.35331463669427	
16.7344222165077	9.950833333	183.0888889	5.46948905807299	3.35331463669427	
19.6130187642953	15.31034946	248.9946237	5.46948905807299	3.35331463669427	
20.8490381252483	21.10916667	262.2291667	5.46948905807299	3.35331463669427	
22.6046148747421	24.13481183	257.3655914	5.46948905807299	3.35331463669427	
21.6074343229189	21.77365591	215.0591398	5.46948905807299	3.35331463669427	
19.5827655563292	18.13388889	174.6930556	5.46948905807299	3.35331463669427	
17.3840840202698	10.98077957	122.5497312	5.46948905807299	3.35331463669427	
14.7064770521803	4.731666667	75.77638889	5.46948905807299	3.35331463669427	
15.8735311192244	-3.686155914	62.66666667	5.46948905807299	3.35331463669427	
