7.18212611576232	2.59078925501866	
11.8816371694921	2.25515750784737	
11.3262210532837	3.02701710533972	
9.32657632312737	3.48559188457827	
11.9109093522777	3.40216696800975	
7.54319914068095	2.98401159735707	
8.09163585035441	3.9216529948016	
10.2374045878649	3.55317859464946	
6.90569903988081	3.79047197874946	
8.7846132450675	3.07671030514563	
11.6033818610323	3.97083705182498	
9.43745989049474	3.26159113054164	
9.92249726857369	2.87995344637893	
10.3086271065536	2.38838316559171	
11.0590558616631	2.09777922895737	
6.43237802345927	2.6126112894776	
7.89017150086351	2.84976508303856	
6.97635398080883	2.29862812470334	
10.7847992602425	2.14492969666608	
10.6209072461321	2.68002984275421	
9.76361370908096	3.86661027202693	
6.04385559615369	2.50596768742738	
9.12920442444272	3.3294325343178	
8.48382319076608	2.79670577704286	
5.58820868983244	2.42495928166124	
7.65884360030293	3.61671586370406	
6.60325435739942	2.06382843013853	
5.80827864320949	3.18627870247389	
8.6906554993894	3.72358507942408	
5.46948905807299	3.35331463669427	
