-4.646505376,73.49865591
-2.520238095,103.889881
3.823924731,143.3400538
9.950833333,183.0888889
15.31034946,248.9946237
21.10916667,262.2291667
24.13481183,257.3655914
21.77365591,215.0591398
18.13388889,174.6930556
10.98077957,122.5497312
4.731666667,75.77638889
-3.686155914,62.66666667
